%YAML 1.1
%TAG !u! tag:unity3d.com,2011:
--- !u!1045 &1
EditorBuildSettings:
  m_ObjectHideFlags: 0
  serializedVersion: 2
  m_Scenes:
  - enabled: 1
    path: Assets/Shift/Scenes/MainMenu.unity
    guid: 90ba63f54226917408c902dee3a59312
  - enabled: 1
    path: Assets/Shift/Scenes/TheAuditorium.unity
    guid: 9cc77d1b37fb8854a983a416218ce7f0
  - enabled: 1
    path: Assets/Shift/Scenes/TheForest.unity
    guid: c2deeb18e9e178444a72134015e56dec
